Soziobiologie,3190701801205
Zellbiologie,319070187732
Hillbillies,53177187714
Liegesessel,73553539317
Geselliges,5391773539
Lesesessel,7355353537
Soziologie,3190701205
beliebiges,5391831738
geselliges,5391773539
Beliebige,391831738
Bibellese,353773818
Bibliolog,907017818
Biosiegel,739315018
Gesellige,391773539
Highheels,573344914
Soziologe,390701205
beliebige,391831738
gesellige,391773539
heilloses,535077134
hellbeige,391387734
hellgelbe,387397734
Beliebig,91831738
Biggesee,33539918
Billiges,53917718
Biologie,31907018
BossHoss,55045508
Gebisses,53551839
Geologie,31907039
Goebbels,57388309
Heiliges,53917134
Hellgelb,87397734
Hoheisel,73513404
Liebelei,13738317
Selbiges,53918735
Sibbesse,35538815
Ziegelei,13739312
Zoologie,31907002
beileibe,38137138
beliebig,91831738
billiges,53917718
gesellig,91773539
heiliges,53917134
heillose,35077134
hellgelb,87397734
hibbelig,91738814
hiesiges,53915314
lieblose,35078317
lillesol,70537717
selbiges,53918735
sieglose,35079315
sooooooo,00000005
ziellose,35077312
Beleges,5393738
Beziehe,3431238
Billige,3917718
Biologe,3907018
Boilies,5317108
Eigelbe,3873913
Eizelle,3773213
Gebesee,3353839
Gebisse,3551839
Geheges,5393439
Geleise,3513739
Geologe,3907039
Geselle,3773539
Giebels,5738319
Giselle,3773519
Gleises,5351379
Goggles,5379909
Googles,5379009
Hebbels,5738834
Heilige,3917134
Hiesige,3915314
Hobbies,5318804
Libelle,3773817
Lieblos,5078317
Lollies,5317707
Seeigel,7391335
Selbige,3918735
Sessels,5735535
Sibille,3771815
Siebels,5738315
Siebzig,9128315
Siegels,5739315
Ziegele,3739312
Ziegels,5739312
Zoologe,3907002
beziehe,3431238
billige,3917718
bissige,3915518
eisiges,5391513
geizige,3912139
heilige,3917134
heillos,5077134
heisses,5355134
hiesige,3915314
holzige,3912704
leblose,3507837
lieblos,5078317
obliege,3931780
selbige,3918735
seliges,5391735
siebzig,9128315
sieglos,5079315
soooooo,0000005
ziellos,5077312
Beisel,735138
Belege,393738
Belegs,593738
Belize,321738
Belles,537738
Bellis,517738
Belzig,912738
Bessel,735538
Bessie,315538
Bezzel,732238
Biblis,517818
Biegel,739318
Billie,317718
Billig,917718
Bleibe,381378
Blesse,355378
Bliebe,383178
Blobel,738078
BlogIG,919078
Boogie,319008
Bosses,535508
EILLES,537713
Eibsee,335813
Eigelb,873913
Eilige,391713
Eilles,537713
Eisele,373513
Eisige,391513
Elegie,319373
Ellies,531773
Eloise,351073
Eslohe,340753
Essige,391553
Essigs,591553
GOOGLE,379009
Gebell,773839
Gebiss,551839
Gehege,393439
Geibel,738139
Geiles,537139
Geisel,735139
Gelbes,538739
Gelees,533739
Gelege,393739
Gesell,773539
Ghibli,178149
Giebel,738319
Giesel,735319
Giglio,017919
Gigolo,070919
Gilles,537719
Gisele,373519
Gleise,351379
Gleiss,551379
Globes,538079
Glosse,355079
Goebel,738309
Goggle,379909
Gohlis,517409
Googel,739009
Google,379009
Goolge,397009
HELIOS,501734
Hebbel,738834
Hebels,573834
Hegele,373934
Hegels,573934
Heiles,537134
Heilig,917134
Heisel,735134
Heisig,915134
Heisse,355134
Helbig,918734
Helios,501734
Helles,537734
Hessel,735534
Hesses,535534
Hilbig,918714
Hillel,737714
Hobbes,538804
Hollis,517704
Holzes,532704
Holzig,912704
Illies,531771
LOGSOL,705907
Leibes,538137
Leises,535137
Lesbos,508537
Leslie,317537
Liebel,738317
Liebes,538317
Liebig,918317
Liesel,735317
Lillie,317717
Lillis,517717
Lizzie,312217
Lollis,517707
Obiges,539180
Obligo,091780
Ohligs,591740
Sebbis,518835
Seelig,917335
Seelze,327335
Segels,573935
Seibel,738135
Seiles,537135
Selbes,538735
Selige,391735
Sessel,735535
Sheego,093345
Shells,577345
Siebel,738315
Siebes,538315
Siegel,739315
Sieges,539315
Siegle,379315
Soleil,713705
Ziegel,739312
Zieles,537312
Ziesel,735312
ZigBee,338912
Zigbee,338912
Zilles,537712
Zoobio,018002
beeile,371338
begebe,383938
begehe,343938
belebe,383738
belege,393738
billig,917718
bissel,735518
bissig,915518
bissle,375518
bleibe,381378
bliebe,383178
blogge,399078
blosse,355078
eilige,391713
eisige,391513
geiles,537139
geizig,912139
gelbes,538739
gelobe,380739
google,379009
heilig,917134
heisse,355134
helles,537734
hihihi,141414
hohles,537404
holzig,912704
leblos,507837
leises,535137
liebes,538317
liesse,355317
obiges,539180
seelig,917335
selbes,538735
selige,391735
sheego,093345
sooooo,000005
BBesG,95388
BIBEL,73818
BIOSS,55018
Bebel,73838
Beese,35338
Begib,81938
Behle,37438
Beige,39138
Beile,37138
Beize,32138
Beleg,93738
Belle,37738
Belli,17738
Bello,07738
Bells,57738
Besse,35538
Bezos,50238
Bibel,73818
Bibis,51818
Bible,37818
Biebl,78318
Biege,39318
Biehl,74318
Biese,35318
Bigge,39918
Biggi,19918
Biggs,59918
Bigos,50918
Bilbo,08718
Bilge,39718
Bille,37718
Billi,17718
Bills,57718
Bisse,35518
Bleib,81378
Bless,55378
Blieb,83178
Blies,53178
Bliss,55178
Blizz,22178
Blogg,99078
Blogs,59078
Blois,51078
Bloss,55078
Bobbi,18808
Boels,57308
Boese,35308
Bohei,13408
Bohle,37408
Bohol,70408
Bolle,37708
Bosse,35508
Bossi,15508
EGBGB,89893
Ehliz,21743
Eilig,91713
Eisel,73513
Eises,53513
Elise,35173
Ellie,31773
Ellis,51773
Elsie,31573
Elzie,31273
Esels,57353
Essel,73553
Essie,31553
Essig,91553
GESIS,51539
GLOBE,38079
Gebel,73839
Geese,35339
Gehle,37439
Geige,39139
Geile,37139
Geise,35139
Geiss,55139
Gelbe,38739
Gelee,33739
Gesso,05539
Gibbs,58819
Giehl,74319
Giese,35319
Giles,53719
Gilis,51719
Gille,37719
Gillo,07719
Gizeh,43219
Gleis,51379
Globe,38079
Globo,08079
Gloss,55079
Goghs,54909
Gogol,70909
Golle,37709
Golze,32709
Goose,35009
Gosse,35509
Gsell,77359
HELLO,07734
HeBIS,51834
Hebei,13834
Hebel,73834
Hebie,31834
Heels,57334
Heese,35334
Hegel,73934
Hegge,39934
Heigl,79134
Heile,37134
Heils,57134
Heise,35134
Heiss,55134
Helge,39734
Helio,01734
Helis,51734
Helle,37734
Hello,07734
Hells,57734
Hesel,73534
Hesse,35534
Hiebe,38314
Hiebl,78314
Higgs,59914
Highs,54914
Hille,37714
Hills,57714
Hilse,35714
Hiobs,58014
Hobbs,58804
Hobel,73804
Hoehe,34304
Hohes,53404
Hohle,37404
Holbe,38704
Holes,53704
Holgi,19704
Holle,37704
Holze,32704
Hooge,39004
Hools,57004
Igels,57391
Illge,39771
Illig,91771
Ilses,53571
Isele,37351
Isles,53751
Issel,73551
LIEBE,38317
LIEBL,78317
Leese,35337
Lehel,73437
Leibe,38137
Leibl,78137
Leigh,49137
Leihe,34137
Leise,35137
Lesbe,38537
Liebe,38317
Liebl,78317
Liebs,58317
Liege,39317
Liegl,79317
Liese,35317
Liesl,75317
Lilie,31717
Lille,37717
Lilli,17717
Lissi,15517
Lobbe,38807
Lobes,53807
Lobos,50807
Loges,53907
Logge,39907
Logis,51907
Logos,50907
Lohse,35407
Loibl,78107
Lolli,17707
Lollo,07707
Loose,35007
Loses,53507
Losse,35507
Obige,39180
Oelze,32730
Ohhhh,44440
Ohlig,91740
Ollie,31770
Ollis,51770
Ooooh,40000
Oslos,50750
Ossig,91550
Ossis,51550
SBZSo,05285
SGBII,11895
Seele,37335
Segel,73935
Segge,39935
Seile,37135
Seils,57135
Selbe,38735
Selig,91735
Selle,37735
Shell,77345
Shoei,13045
Shoes,53045
Sibel,73815
Siebe,38315
Siege,39315
Siegl,79315
Siegs,59315
Siehe,34315
Sigel,73915
Siggi,19915
Sigle,37915
Siglo,07915
Silbe,38715
Silos,50715
Sissi,15515
Sligo,09175
Sohle,37405
Soles,53705
Solis,51705
Solle,37705
Solls,57705
Solos,50705
Soooo,00005
Sosse,35505
Sozis,51205
ZEISS,55132
Zeige,39132
Zeile,37132
Zeise,35132
Zeiss,55132
Zelle,37732
Ziege,39312
Ziehe,34312
Ziele,37312
Ziels,57312
Zille,37712
Zizzi,12212
Zobel,73802
Zoggs,59902
Zoigl,79102
Zolls,57702
begib,81938
behob,80438
beige,39138
belle,37738
bello,07738
bezog,90238
biege,39318
bissi,15518
bissl,75518
bleib,81378
blieb,83178
blies,53178
blogs,59078
bloss,55078
bogig,91908
ebbes,53883
eiSos,50513
eilig,91713
eisig,91513
geile,37139
gelbe,38739
gelle,37739
heile,37134
heise,35134
heiss,55134
heize,32134
helle,37734
hello,07734
hiess,55314
hohes,53404
hohle,37404
isses,53551
leihe,34137
leise,35137
liebe,38317
liege,39317
liess,55317
logge,39907
logie,31907
loose,35007
loses,53507
obige,39180
seele,37335
selbe,38735
selig,91735
sells,57735
shell,77345
shoes,53045
siehe,34315
sissi,15515
